declare
{
    int s=100;
   (int) = abc(bool b, char c);
   (int) = abc(int);
}
(int a) = function abc(bool b, char c)
{
    lbl:
    int x=10;
    goto lbl;
    return;
}
(int r) = function abc(int i)
{
    int t=10;
    r=1;
    return;
}
(int c) = function start()
{
	lbl:
	int a=1;
	goto lbl;
}