declare{
           student;
           (int) = func(bool, char);
       }

       type st {
           private int x;
           public string name;
           protected float score;
           public function f() {}
       }

       (int r) = function func(bool b, char c) {
           b = false;
           c = 's';
           r = 0;
           int j;
           j=5;
           int w;
           return;
       }
